{
    "extensionDescription": {
        "message": "",
        "description": "Extension description shown in the options page and as short description on addons.mozilla.org."
    },
    "extensionsLongDescription": {
        "message": "!!Occitan not available on AMO!!",
        "description": "Long description displayed on addons.mozilla.org."
    },
    "browserActionTitle": {
        "message": "Activar/Desactivar Tab Center Reborn",
        "description": "Tooltip shown when hovering the toolbar button."
    },
    "sidebarTitle": {
        "message": "Onglets",
        "description": "Taken from Firefox: https://pontoon.mozilla.org/en-GB/firefox/all-resources/?string=176230. Label shown in the sidebar selector."
    },
    "newTabBtnTooltip": {
        "message": "Dobrir un onglet novèl",
        "description": "Taken from Firefox: https://pontoon.mozilla.org/en-GB/firefox/all-resources/?string=74421. Tooltip of the New Tab button in the top menu."
    },
    "searchPlaceholder": {
        "message": "Recercar pels onglets",
        "description": "Placehorder of the Search bar in the top menu."
    },
    "settingsBtnTooltip": {
        "message": "Dobrir los paramètres",
        "description": "Tooltip of the settings button in the top menu."
    },
    "newTabContextMenuOpenAtEnd": {
        "message": "A la fin",
        "description": "New Tab context menu item."
    },
    "newTabContextMenuOpneAfterCurrent": {
        "message": "",
        "description": "New Tab context menu item."
    },
    "newTabContextMenuOpenInWindow": {
        "message": "Fenèstra novèla",
        "description": "Take from Firefox: https://pontoon.mozilla.org/en-GB/firefox/all-resources/?string=75625. New Tab context menu item."
    },
    "newTabContextMenuOpenInPrivateWindow": {
        "message": "Fenèstra novèla de navegacion privada",
        "description": "Taken from Firefox: https://pontoon.mozilla.org/en-GB/firefox/all-resources/?string=75628. New Tab context menu item."
    },
    "muteTabButtonTooltip": {
        "message": "Rendre l’onglet mut",
        "description": "Taken from Firefox: https://pontoon.mozilla.org/en-GB/firefox/all-resources/?string=99188. Tooltip of the audible icon on tabs, displayed on the favicon."
    },
    "unmuteTabButtonTooltip": {
        "message": "Rendre pas l'onglet mut",
        "description": "Taken from Firefox: https://pontoon.mozilla.org/en-GB/firefox/all-resources/?string=99190. Tooltip of the unmute icon on tabs, displayed on the favicon."
    },
    "closeTabButtonTooltip": {
        "message": "Tampar l’onglet",
        "description": "Taken from Firefox: https://pontoon.mozilla.org/en-GB/firefox/all-resources/?string=197248. Tooltip of the close button on tabs."
    },
    "allTabsLabel": {
        "message": "Mostrar totes los onglets…",
        "description": "Label shown at the bottom of the list of tabs if some tabs are filtered by the current search query."
    },
    "contextMenuReloadTab": {
        "message": "Tornar cargar l’onglet",
        "description": "Taken from Firefox: https://pontoon.mozilla.org/en-GB/firefox/all-resources/?string=197237. Context menu item label."
    },
    "contextMenuPinTab": {
        "message": "Penjar l’onglets",
        "description": "Taken from Firefox: https://pontoon.mozilla.org/en-GB/firefox/all-resources/?string=197249. Context menu item label."
    },
    "contextMenuUnpinTab": {
        "message": "Despenjar l’onglet",
        "description": "Taken from Firefox: https://pontoon.mozilla.org/en-GB/firefox/all-resources/?string=197266. Context menu item label."
    },
    "contextMenuMuteTab": {
        "message": "Rendre l’onglet mut",
        "description": "Taken from Firefox: https://pontoon.mozilla.org/en-GB/firefox/all-resources/?string=99188. Context menu item label and tooltip of the audible icon on tabs."
    },
    "contextMenuUnmuteTab": {
        "message": "Rendre pas l’onglet mut",
        "description": "Taken from Firefox: https://pontoon.mozilla.org/en-GB/firefox/all-resources/?string=99190. Context menu item label and tooltip of the unmute icon on tabs."
    },
    "contextMenuDuplicateTab": {
        "message": "Duplicar l’onglet",
        "description": "Taken from Firefox: https://pontoon.mozilla.org/en-GB/firefox/all-resources/?string=197263. Context menu item label."
    },
    "contextMenuUnloadTab": {
        "message": "",
        "description": "Context menu item label."
    },
    "contextMenuOpenInContextualTab": {
        "message": "Tornar dobrir dins un onglet isolat",
        "description": "Taken from Firefox: https://pontoon.mozilla.org/en-GB/firefox/all-resources/?string=197234. Context menu item label."
    },
    "contextMenuMoveTab": {
        "message": "Desplaçar l’onglet",
        "description": "Taken from Firefox: https://pontoon.mozilla.org/en-GB/firefox/all-resources/?string=197269. Context menu item label."
    },
    "contextMenuMoveTabToStart": {
        "message": "Desplaçar cap a la debuta",
        "description": "Context menu item label."
    },
    "contextMenuMoveTabToEnd": {
        "message": "Desplaçar cap a la fin",
        "description": "Context menu item label."
    },
    "contextMenuMoveTabToNewWindow": {
        "message": "Desplaçar cap a una fenèstra novèla",
        "description": "Taken from Firefox: https://pontoon.mozilla.org/en-GB/firefox/all-resources/?string=197261. Context menu item label."
    },
    "contextMenuCloseTabs": {
        "message": "Tampar los onglets",
        "description": "Taken from Firefox: https://pontoon.mozilla.org/en-GB/firefox/all-resources/?string=197250. Context Menu item label"
    },
    "contextMenuCloseTabsBefore": {
        "message": "",
        "description": "Context menu item label."
    },
    "contextMenuCloseTabsAfter": {
        "message": "",
        "description": "Context menu item label."
    },
    "contextMenuCloseOtherTabs": {
        "message": "Tampar los autres onglets",
        "description": "Taken from Firefox: https://pontoon.mozilla.org/en-GB/firefox/all-resources/?string=197270. Context menu item label."
    },
    "contextMenuUndoCloseTab": {
        "message": "Anullar la tampadura de l’onglet",
        "description": "Taken from Firefox: https://pontoon.mozilla.org/en-GB/firefox/all-resources/?string=197236. Context menu item label."
    },
    "contextMenuCloseTab": {
        "message": "Tampar l’onglet",
        "description": "Taken from Firefox: https://pontoon.mozilla.org/en-GB/firefox/all-resources/?string=197248. Context menu item label."
    },
    "optionsAppearanceTitle": {
        "message": "",
        "description": "Section in options page."
    },
    "optionsSwitchLastActiveTabExplanation": {
        "message": "",
        "description": "Explanation for the Compact Mode option in options page."
    },
    "OptionsAnimations": {
        "message": "",
        "description": "Option in options page."
    },
    "optionsCompactMode": {
        "message": "",
        "description": "Option in options page."
    },
    "optionsCompactModeExplanation": {
        "message": "",
        "description": "Explanation for the Compact Mode option in options page."
    },
    "optionsCompactModeOff": {
        "message": "",
        "description": "Possible value for Compact Mode option in options page."
    },
    "optionsCompactModeDynamic": {
        "message": "",
        "description": "Possible value for Compact Mode option in options page."
    },
    "optionsCompactModeStrict": {
        "message": "",
        "description": "Possible value for Compact Mode option in options page."
    },
    "optionsSwitchLastActiveTab": {
        "message": "",
        "description": "Option in options page."
    },
    "optionsCompactPins": {
        "message": "",
        "description": "Option in options page."
    },
    "optionsThemeIntegration": {
        "message": "",
        "description": "Option in options page."
    },
    "optionsThemeIntegrationExplanation": {
        "message": "",
        "description": "Explanation for the Theme Integration option in the options page."
    },
    "optionsBehaviorTitle": {
        "message": "",
        "description": "Section in options page."
    },
    "optionsNotifyClosingManyTabs": {
        "message": "",
        "description": "Option in options page."
    },
    "optionsNotifyClosingManyTabsExplanation": {
        "message": "",
        "description": "Explanation for the Notify when closing many tabs option in options page.",
        "placeholders": {
            "count": {
                "content": "$1",
                "example": "5"
            }
        }
    },
    "optionsAdvancedTitle": {
        "message": "Avançat",
        "description": "Taken from Firefox: https://pontoon.mozilla.org/en-GB/firefox/all-resources/?string=176300. Section in options page."
    },
    "optionsCustomCSS": {
        "message": "",
        "description": "Option in options page."
    },
    "optionsCustomCSSChangelogLink": {
        "message": "",
        "description": "Text for a link to the changelog."
    },
    "optionsCustomCSSWikiLink": {
        "message": "",
        "description": "Text for a link to the wiki."
    },
    "optionsSaveCustomCSS": {
        "message": "",
        "description": "Option in options page."
    },
    "notificationDeletedTitle": {
        "message": "",
        "description": "Title of the notification when deleting many tabs.",
        "placeholders": {
            "count": {
                "content": "$1",
                "example": "5"
            }
        }
    },
    "notificationDeletedMessage": {
        "message": "",
        "description": "Title of the notification when deleting many tabs."
    }
}
