{
    "extensionDescription": {
        "message": "أنقل ألسنتك إلى جانب مِن نافذة متصفحك."
    },
    "browserActionTitle": {
        "message": "تفعيل/إلغاء الإضافة",
        "description": "Tooltip shown when hovering the toolbar button."
    },
    "sidebarTitle": {
        "message": "علامات التبويب",
        "description": "Label shown in the sidebar selector."
    },
    "newTabBtnLabel": {
        "message": "علامة تبويب جديدة",
        "description": "Label of the New Tab button in the top menu."
    },
    "newTabBtnTooltip": {
        "message": "افتح علامة تبويب جديدة"
    },
    "searchPlaceholder": {
        "message": "البحث في علامات التبويب"
    },
    "closeTabButtonTooltip": {
        "message": "اغلق اللسان"
    },
    "allTabsLabel": {
        "message": "أظهر كل علامات التبويب…",
        "description": "Shown at the bottom of the list of tabs if some tabs are filtered by the current search query."
    },
    "contextMenuReloadTab": {
        "message": "أعِد تحميل الصفحة",
        "description": "Reload Tab context menu item label."
    },
    "contextMenuPinTab": {
        "message": "ثبّت علامة التبويب",
        "description": "Pin Tab context menu item label."
    },
    "contextMenuUnpinTab": {
        "message": "أزل تثبيت علامة التبويب",
        "description": "Unpin Tab context menu item label."
    },
    "contextMenuMuteTab": {
        "message": "كتم علامة التبويب",
        "description": "Mute Tab context menu item label."
    },
    "contextMenuUnmuteTab": {
        "message": "إلغاء كتم علامة التبويب",
        "description": "Unmute Tab context menu item label."
    },
    "contextMenuCloseTab": {
        "message": "أغلق علامة التبويب"
    },
    "contextMenuUndoCloseTab": {
        "message": "التراجع عن إغلاق علامة التبويب"
    },
    "contextMenuDuplicateTab": {
        "message": "تكرار علامة التبويب"
    },
    "contextMenuMoveTabToNewWindow": {
        "message": "إنتقل إلى نافذة جديدة"
    },
    "contextMenuReloadAllTabs": {
        "message": "إعادة تحميل كافة علامات التبويب"
    },
    "contextMenuCloseTabsAfter": {
        "message": "أغلق علامات التبويب في الأسفل"
    },
    "contextMenuCloseOtherTabs": {
        "message": "أغلق علامات التبويب الأُخرى"
    },
    "settingsBtnTooltip": {
        "message": "افتح الإعدادات"
    },
    "optionsTitle": {
        "message": "الإعدادات"
    },
    "optionsCompactMode": {
        "message": "الوضع المختصر"
    },
    "optionsCompactModeExplanation": {
        "message": "إن الوضع المختصر يقلل من إرتفاع علامات التبويب لكي يتم إظهار عدد أكبر منهم. بينما في الإعدادات الديناميكية, سيتم تفعيل الوضع المختصر فقط عندما لا يبقى مساحة كافية."
    },
    "optionsCompactModeOff": {
        "message": "معطّل"
    },
    "optionsCompactModeDynamic": {
        "message": "ديناميكي"
    },
    "optionsCompactModeStrict": {
        "message": "دوماً"
    },
    "optionsCompactPins": {
        "message": "إظهار علامات التبويب المثبّتة بشكل مختصر"
    },
    "optionsDarkTheme": {
        "message": "قالب ألوان داكنة"
    },
    "optionsThemeIntegration": {
        "message": "دمج مع السمة الحالية"
    },
    "optionsAdvancedTitle": {
        "message": "متقدّم"
    },
    "optionsCustomCSS": {
        "message": "إضافة كود css مخصص"
    },
    "optionsCustomCSSWikiLink": {
        "message": "مقالة الويكي لتخصيص كود ال css"
    },
    "optionsSaveCustomCSS": {
        "message": "حفظ كود ال css"
    },
    "contextMenuOpenInContextualTab": {
        "message": "أعِد فتحها في الحاوية"
    },
    "contextMenuMoveTab": {
        "message": "انقل اللسان"
    },
    "contextMenuMoveTabToStart": {
        "message": "انقل إلى البداية"
    },
    "contextMenuMoveTabToEnd": {
        "message": "انقل إلى النهاية"
    },
    "browserActionOn": {
        "message": "نَشِط",
        "description": "Badge text shown when sidebar is open."
    },
    "browserActionOff": {
        "message": "معطّل",
        "description": "Badge text shown when sidebar is closed."
    },
    "contextMenuCloseTabsBefore": {
        "message": "اغلق الألسنة قبل",
        "description": "Context menu item label."
    },
    "contextMenuCloseTabs": {
        "message": "اغلق الألسنة",
        "description": "Context Menu item label"
    },
    "optionsBehaviorTitle": {
        "message": "السلوك",
        "description": "Section in options page."
    },
    "optionsAppearanceTitle": {
        "message": "المظهر",
        "description": "Section in options page."
    },
    "newTabContextMenuOpenInPrivateWindow": {
        "message": "نافذة خاصة جديدة",
        "description": "Taken from Firefox: https://pontoon.mozilla.org/en-GB/firefox/all-resources/?string=75628. New Tab context menu item."
    },
    "newTabContextMenuOpenInWindow": {
        "message": "نافذه جديدة",
        "description": "Take from Firefox: https://pontoon.mozilla.org/en-GB/firefox/all-resources/?string=75625. New Tab context menu item."
    }
}
